'Brings SummarizedExperiment to the Tidyverse • tidySE
…
From Github

devtools::install_github("stemangiola/tidySE")

Create tidySE, the best of both worlds!

This is a SummarizedExperiment object but it is evaluated as tibble. So it is fully compatible both with SummarizedExperiment and tidyverse APIs.

pasilla_tidy = tidySE::pasilla %>% tidySE::tidy()

It looks like a tibble

pasilla_tidy

## # A tibble: 102,193 x 5
##    sample condition type       transcript  counts
##    <chr>  <chr>     <chr>      <chr>        <int>
##  1 untrt1 untreated single_end FBgn0000003      0
##  2 untrt1 untreated single_end FBgn0000008     92
##  3 untrt1 untreated single_end FBgn0000014      5
##  4 untrt1 untreated single_end FBgn0000015      0
##  5 untrt1 untreated single_end FBgn0000017   4664
##  6 untrt1 untreated single_end FBgn0000018    583
##  7 untrt1 untreated single_end FBgn0000022      0
##  8 untrt1 untreated single_end FBgn0000024     10
##  9 untrt1 untreated single_end FBgn0000028      0
## 10 untrt1 untreated single_end FBgn0000032   1446
## # … with 102,183 more rows
…
Annotation polishing using tidyverse

We may have a column that contains the directory each run was taken from. We may want to extract the run/sample name out of it.

pasilla_polished =
  pasilla_tidy %>%
  mutate(type = gsub("_end", "", type)) 

pasilla_polished 

## # A tibble: 102,193 x 5
##    sample condition type   transcript  counts
##    <chr>  <chr>     <chr>  <chr>        <int>
##  1 untrt1 untreated single FBgn0000003      0
##  2 untrt1 untreated single FBgn0000008     92
##  3 untrt1 untreated single FBgn0000014      5
##  4 untrt1 untreated single FBgn0000015      0
##  5 untrt1 untreated single FBgn0000017   4664
##  6 untrt1 untreated single FBgn0000018    583
##  7 untrt1 untreated single FBgn0000022      0
##  8 untrt1 untreated single FBgn0000024     10
##  9 untrt1 untreated single FBgn0000028      0
## 10 untrt1 untreated single FBgn0000032   1446
## # … with 102,183 more rows
…
