Efficiently bind multiple data frames by row and column — bind_rows • tidySummarizedExperiment
…
se_bind <- se |> select(dex,  albut)
#> tidySummarizedExperiment says: Key columns are missing. A data frame is returned for independent data analysis.
se |> ttservice::bind_cols(se_bind)
#> New names:
#> • `dex` -> `dex...6`
#> • `albut` -> `albut...7`
#> • `dex` -> `dex...14`
#> • `albut` -> `albut...15`
#> Warning: tidySummarizedExperiment says: The new columns do not include pure sample-wise or feature-wise. A data frame is returned for independent data analysis.
#> # A tibble: 800 × 15
#>    .feature    .sample counts SampleName cell  dex...6 albut...7 Run   avgLength
#>    <chr>       <chr>    <int> <fct>      <fct> <fct>   <fct>     <fct>     <int>
#>  1 LRG_239     SRR103…      0 GSM1275862 N613… untrt   untrt     SRR1…       126
#>  2 ENSG000002… SRR103…      0 GSM1275862 N613… untrt   untrt     SRR1…       126
#>  3 ENSG000001… SRR103…      0 GSM1275862 N613… untrt   untrt     SRR1…       126
#>  4 ENSG000002… SRR103…      0 GSM1275862 N613… untrt   untrt     SRR1…       126
#>  5 ENSG000002… SRR103…      0 GSM1275862 N613… untrt   untrt     SRR1…       126
#>  6 ENSG000002… SRR103…      0 GSM1275862 N613… untrt   untrt     SRR1…       126
#>  7 ENSG000002… SRR103…      0 GSM1275862 N613… untrt   untrt     SRR1…       126
#>  8 ENSG000002… SRR103…      0 GSM1275862 N613… untrt   untrt     SRR1…       126
#>  9 ENSG000002… SRR103…      0 GSM1275862 N613… untrt   untrt     SRR1…       126
#> 10 ENSG000001… SRR103…  11225 GSM1275862 N613… untrt   untrt     SRR1…       126
#> # ℹ 790 more rows
#> # ℹ 6 more variables: Experiment <fct>, Sample <fct>, BioSample <fct>,
#> #   bla <chr>, dex...14 <fct>, albut...15 <fct>
…
