distinct — distinct • tidySummarizedExperiment
…
# Learn more in ?dplyr_tidy_eval

data(pasilla)
pasilla  |> group_by(.sample)
#> tidySummarizedExperiment says: A data frame is returned for independent data analysis.
#> # A tibble: 102,193 × 5
#> # Groups:   .sample [7]
#>    .feature    .sample counts condition type      
#>    <chr>       <chr>    <int> <chr>     <chr>     
#>  1 FBgn0000003 untrt1       0 untreated single_end
#>  2 FBgn0000008 untrt1      92 untreated single_end
#>  3 FBgn0000014 untrt1       5 untreated single_end
#>  4 FBgn0000015 untrt1       0 untreated single_end
#>  5 FBgn0000017 untrt1    4664 untreated single_end
#>  6 FBgn0000018 untrt1     583 untreated single_end
#>  7 FBgn0000022 untrt1       0 untreated single_end
#>  8 FBgn0000024 untrt1      10 untreated single_end
#>  9 FBgn0000028 untrt1       0 untreated single_end
#> 10 FBgn0000032 untrt1    1446 untreated single_end
#> # ℹ 102,183 more rows
…
data(pasilla)

pasilla |>
    
    sample_n(50)
#> tidySummarizedExperiment says: A data frame is returned for independent data analysis.
#> # A tibble: 50 × 5
#>    .feature    .sample counts condition type      
#>    <chr>       <chr>    <int> <chr>     <chr>     
#>  1 FBgn0003862 trt1      5971 treated   single_end
#>  2 FBgn0051493 untrt3       0 untreated paired_end
#>  3 FBgn0041239 trt2         0 treated   paired_end
#>  4 FBgn0054054 trt1        19 treated   single_end
#>  5 FBgn0036940 trt2         0 treated   paired_end
#>  6 FBgn0010228 untrt4     795 untreated paired_end
#>  7 FBgn0040098 trt1         0 treated   single_end
#>  8 FBgn0035524 trt3       416 treated   paired_end
#>  9 FBgn0003169 untrt2    2820 untreated single_end
#> 10 FBgn0085395 trt1       105 treated   single_end
#> # ℹ 40 more rows
pasilla |>
    
    sample_frac(0.1)
#> tidySummarizedExperiment says: A data frame is returned for independent data analysis.
#> # A tibble: 10,219 × 5
#>    .feature    .sample counts condition type      
#>    <chr>       <chr>    <int> <chr>     <chr>     
#>  1 FBgn0016078 trt3       334 treated   paired_end
#>  2 FBgn0032665 trt2         0 treated   paired_end
#>  3 FBgn0035187 untrt3       2 untreated paired_end
#>  4 FBgn0005629 trt2        65 treated   paired_end
#>  5 FBgn0036168 untrt1       0 untreated single_end
#>  6 FBgn0011455 trt3       836 treated   paired_end
#>  7 FBgn0031364 trt1         1 treated   single_end
#>  8 FBgn0083004 untrt3       0 untreated paired_end
#>  9 FBgn0085327 untrt4       0 untreated paired_end
#> 10 FBgn0053105 trt1       132 treated   single_end
#> # ℹ 10,209 more rows
…
