Extract a character column into multiple columns using regular expression groups — extract • tidySE
…
    Value

    A tidySE objector a tibble depending on input

    See also

    [separate()] to split up by a separator.

    Examples

tidySE::pasilla %>%
    tidy() %>%
    extract(type, into="sequencing", regex="([a-z]*)_end", convert=TRUE)

#> # A tibble: 102,193 x 5
#>    sample condition sequencing transcript  counts
#>    <chr>  <chr>     <chr>      <chr>        <int>
#>  1 untrt1 untreated single     FBgn0000003      0
#>  2 untrt1 untreated single     FBgn0000008     92
#>  3 untrt1 untreated single     FBgn0000014      5
#>  4 untrt1 untreated single     FBgn0000015      0
#>  5 untrt1 untreated single     FBgn0000017   4664
#>  6 untrt1 untreated single     FBgn0000018    583
#>  7 untrt1 untreated single     FBgn0000022      0
#>  8 untrt1 untreated single     FBgn0000024     10
#>  9 untrt1 untreated single     FBgn0000028      0
#> 10 untrt1 untreated single     FBgn0000032   1446
#> # … with 102,183 more rows
…
