Sample n rows from a table — sample_n • tidySummarizedExperiment
…
...
ignored

    Value

    tidySummarizedExperiment

    Examples

data(pasilla)
pasilla |> sample_n(50)
#> tidySummarizedExperiment says: A data frame is returned for independent data analysis.
#> # A tibble: 50 × 5
#>    .feature    .sample counts condition type      
#>    <chr>       <chr>    <int> <chr>     <chr>     
#>  1 FBgn0043796 untrt2     630 untreated single_end
#>  2 FBgn0033810 untrt2     389 untreated single_end
#>  3 FBgn0053742 trt3         0 treated   paired_end
#>  4 FBgn0035552 untrt4       0 untreated paired_end
#>  5 FBgn0037449 untrt2      37 untreated single_end
#>  6 FBgn0029811 untrt2       0 untreated single_end
#>  7 FBgn0035743 untrt2       0 untreated single_end
#>  8 FBgn0053362 untrt1       0 untreated single_end
#>  9 FBgn0034231 untrt3      42 untreated paired_end
#> 10 FBgn0041709 trt2         6 treated   paired_end
#> # ℹ 40 more rows
pasilla |> sample_frac(0.1)
#> tidySummarizedExperiment says: A data frame is returned for independent data analysis.
#> # A tibble: 10,219 × 5
#>    .feature    .sample counts condition type      
#>    <chr>       <chr>    <int> <chr>     <chr>     
#>  1 FBgn0033100 untrt1     212 untreated single_end
#>  2 FBgn0052494 trt1         0 treated   single_end
#>  3 FBgn0035113 untrt1      76 untreated single_end
#>  4 FBgn0014010 untrt2    5936 untreated single_end
#>  5 FBgn0041096 untrt1      52 untreated single_end
#>  6 FBgn0034434 untrt2     304 untreated single_end
#>  7 FBgn0034565 untrt1       1 untreated single_end
#>  8 FBgn0034936 untrt4     547 untreated paired_end
#>  9 FBgn0035331 trt1        13 treated   single_end
#> 10 FBgn0021967 untrt1     988 untreated single_end
#> # ℹ 10,209 more rows
…
