Coerce lists, matrices, and more to data frames — as_tibble • tidySummarizedExperiment
…
    See also

    [tibble()] constructs a tibble from individual columns. [enframe()]
  converts a named vector to a tibble with a column of names and column of
  values. Name repair is implemented using [vctrs::vec_as_names()].

    Examples

tidySummarizedExperiment::pasilla %>%
    
    as_tibble()

#> # A tibble: 102,193 x 5
#>    transcript  sample counts condition type      
#>    <chr>       <chr>   <int> <chr>     <chr>     
#>  1 FBgn0000003 untrt1      0 untreated single_end
#>  2 FBgn0000008 untrt1     92 untreated single_end
#>  3 FBgn0000014 untrt1      5 untreated single_end
#>  4 FBgn0000015 untrt1      0 untreated single_end
#>  5 FBgn0000017 untrt1   4664 untreated single_end
#>  6 FBgn0000018 untrt1    583 untreated single_end
#>  7 FBgn0000022 untrt1      0 untreated single_end
#>  8 FBgn0000024 untrt1     10 untreated single_end
#>  9 FBgn0000028 untrt1      0 untreated single_end
#> 10 FBgn0000032 untrt1   1446 untreated single_end
#> # … with 102,183 more rows
…
