unnest — unnest • tidySummarizedExperiment
…
tidySummarizedExperiment::pasilla %>%

    extract(type, into="sequencing", regex="([a-z]*)_end", convert=TRUE)

#> Error in as.vector(x, mode): cannot coerce type 'closure' to vector of type 'any'
    
# See vignette("pivot") for examples and explanation

library(dplyr)
tidySummarizedExperiment::pasilla %>%

    pivot_longer(c(condition, type), names_to="name", values_to="value")

#> tidySummarizedExperiment says: A data frame is returned for independent data analysis.
#> # A tibble: 204,386 x 5
#>    .feature    .sample counts name      value     
#>    <chr>       <chr>    <int> <chr>     <chr>     
#>  1 FBgn0000003 untrt1       0 condition untreated 
#>  2 FBgn0000003 untrt1       0 type      single_end
#>  3 FBgn0000008 untrt1      92 condition untreated 
#>  4 FBgn0000008 untrt1      92 type      single_end
#>  5 FBgn0000014 untrt1       5 condition untreated 
#>  6 FBgn0000014 untrt1       5 type      single_end
#>  7 FBgn0000015 untrt1       0 condition untreated 
#>  8 FBgn0000015 untrt1       0 type      single_end
#>  9 FBgn0000017 untrt1    4664 condition untreated 
#> 10 FBgn0000017 untrt1    4664 type      single_end
#> # … with 204,376 more rows
…
